^D:\DISK_C\DESKTOP\PARALLEL_LAB\GAUSS_MPI\GAUSS_MPI\PCH.CPP
D:\DISK_C\DESKTOP\PARALLEL_LAB\GAUSS_MPI\GAUSS_MPI\DEBUG\GAUSS_MPI.PCH
D:\DISK_C\DESKTOP\PARALLEL_LAB\GAUSS_MPI\GAUSS_MPI\DEBUG\VC141.PDB
D:\DISK_C\DESKTOP\PARALLEL_LAB\GAUSS_MPI\GAUSS_MPI\DEBUG\VC141.IDB
D:\DISK_C\DESKTOP\PARALLEL_LAB\GAUSS_MPI\GAUSS_MPI\DEBUG\PCH.OBJ
^D:\DISK_C\DESKTOP\PARALLEL_LAB\GAUSS_MPI\GAUSS_MPI\GAUSS_MPI.CPP
D:\DISK_C\DESKTOP\PARALLEL_LAB\GAUSS_MPI\GAUSS_MPI\DEBUG\VC141.PDB
D:\DISK_C\DESKTOP\PARALLEL_LAB\GAUSS_MPI\GAUSS_MPI\DEBUG\VC141.IDB
D:\DISK_C\DESKTOP\PARALLEL_LAB\GAUSS_MPI\GAUSS_MPI\DEBUG\GAUSS_MPI.OBJ
